verilog/debug.vcd
$comment
Copyright (C) 2015-2023 Gowin Semiconductor Corporation.
$end
$date
  20/04/2024 07:05:29
$end
$timescale
  1 ps
$end
$scope
module top
$end
$var
reg 1 ! sys_clk
$end
$var
reg 1 " state[3]
$end
$var
reg 1 # state[2]
$end
$var
reg 1 $ state[1]
$end
$var
reg 1 % state[0]
$end
$var
reg 1 & state_refresh[3]
$end
$var
reg 1 ' state_refresh[2]
$end
$var
reg 1 ( state_refresh[1]
$end
$var
reg 1 ) state_refresh[0]
$end
$var
reg 1 * rd
$end
$var
reg 1 + wr
$end
$var
reg 1 , refresh
$end
$var
reg 1 - busy
$end
$var
reg 1 . data_ready
$end
$var
reg 1 / addr[22]
$end
$var
reg 1 0 addr[21]
$end
$var
reg 1 1 addr[20]
$end
$var
reg 1 2 addr[19]
$end
$var
reg 1 3 addr[18]
$end
$var
reg 1 4 addr[17]
$end
$var
reg 1 5 addr[16]
$end
$var
reg 1 6 addr[15]
$end
$var
reg 1 7 addr[14]
$end
$var
reg 1 8 addr[13]
$end
$var
reg 1 9 addr[12]
$end
$var
reg 1 : addr[11]
$end
$var
reg 1 ; addr[10]
$end
$var
reg 1 < addr[9]
$end
$var
reg 1 = addr[8]
$end
$var
reg 1 > addr[7]
$end
$var
reg 1 ? addr[6]
$end
$var
reg 1 @ addr[5]
$end
$var
reg 1 A addr[4]
$end
$var
reg 1 B addr[3]
$end
$var
reg 1 C addr[2]
$end
$var
reg 1 D addr[1]
$end
$var
reg 1 E addr[0]
$end
$var
reg 1 F din[31]
$end
$var
reg 1 G din[30]
$end
$var
reg 1 H din[29]
$end
$var
reg 1 I din[28]
$end
$var
reg 1 J din[27]
$end
$var
reg 1 K din[26]
$end
$var
reg 1 L din[25]
$end
$var
reg 1 M din[24]
$end
$var
reg 1 N din[23]
$end
$var
reg 1 O din[22]
$end
$var
reg 1 P din[21]
$end
$var
reg 1 Q din[20]
$end
$var
reg 1 R din[19]
$end
$var
reg 1 S din[18]
$end
$var
reg 1 T din[17]
$end
$var
reg 1 U din[16]
$end
$var
reg 1 V din[15]
$end
$var
reg 1 W din[14]
$end
$var
reg 1 X din[13]
$end
$var
reg 1 Y din[12]
$end
$var
reg 1 Z din[11]
$end
$var
reg 1 [ din[10]
$end
$var
reg 1 \ din[9]
$end
$var
reg 1 ] din[8]
$end
$var
reg 1 ^ din[7]
$end
$var
reg 1 _ din[6]
$end
$var
reg 1 ` din[5]
$end
$var
reg 1 a din[4]
$end
$var
reg 1 b din[3]
$end
$var
reg 1 c din[2]
$end
$var
reg 1 d din[1]
$end
$var
reg 1 e din[0]
$end
$var
reg 1 f dout[31]
$end
$var
reg 1 g dout[30]
$end
$var
reg 1 h dout[29]
$end
$var
reg 1 i dout[28]
$end
$var
reg 1 j dout[27]
$end
$var
reg 1 k dout[26]
$end
$var
reg 1 l dout[25]
$end
$var
reg 1 m dout[24]
$end
$var
reg 1 n dout[23]
$end
$var
reg 1 o dout[22]
$end
$var
reg 1 p dout[21]
$end
$var
reg 1 q dout[20]
$end
$var
reg 1 r dout[19]
$end
$var
reg 1 s dout[18]
$end
$var
reg 1 t dout[17]
$end
$var
reg 1 u dout[16]
$end
$var
reg 1 v dout[15]
$end
$var
reg 1 w dout[14]
$end
$var
reg 1 x dout[13]
$end
$var
reg 1 y dout[12]
$end
$var
reg 1 z dout[11]
$end
$var
reg 1 { dout[10]
$end
$var
reg 1 | dout[9]
$end
$var
reg 1 } dout[8]
$end
$var
reg 1 ~ dout[7]
$end
$var
reg 1 "! dout[6]
$end
$var
reg 1 "" dout[5]
$end
$var
reg 1 "# dout[4]
$end
$var
reg 1 "$ dout[3]
$end
$var
reg 1 "% dout[2]
$end
$var
reg 1 "& dout[1]
$end
$var
reg 1 "' dout[0]
$end
$var
reg 1 "( refresh_cnt[7]
$end
$var
reg 1 ") refresh_cnt[6]
$end
$var
reg 1 "* refresh_cnt[5]
$end
$var
reg 1 "+ refresh_cnt[4]
$end
$var
reg 1 ", refresh_cnt[3]
$end
$var
reg 1 "- refresh_cnt[2]
$end
$var
reg 1 ". refresh_cnt[1]
$end
$var
reg 1 "/ refresh_cnt[0]
$end
$var
reg 1 "0 led[5]
$end
$var
reg 1 "1 led[4]
$end
$var
reg 1 "2 led[3]
$end
$var
reg 1 "3 led[2]
$end
$var
reg 1 "4 led[1]
$end
$var
reg 1 "5 led[0]
$end
$var
reg 1 "6 leds[7]
$end
$var
reg 1 "7 leds[6]
$end
$var
reg 1 "8 leds[5]
$end
$var
reg 1 "9 leds[4]
$end
$var
reg 1 ": leds[3]
$end
$var
reg 1 "; leds[2]
$end
$var
reg 1 "< leds[1]
$end
$var
reg 1 "= leds[0]
$end
$upscope
$end
$enddefinitions
$end
#0
$dumpvars
0!
X"
X#
X$
X%
X&
X'
X(
X)
X*
X+
X,
X-
X.
X/
X0
X1
X2
X3
X4
X5
X6
X7
X8
X9
X:
X;
X<
X=
X>
X?
X@
XA
XB
XC
XD
XE
XF
XG
XH
XI
XJ
XK
XL
XM
XN
XO
XP
XQ
XR
XS
XT
XU
XV
XW
XX
XY
XZ
X[
X\
X]
X^
X_
X`
Xa
Xb
Xc
Xd
Xe
Xf
Xg
Xh
Xi
Xj
Xk
Xl
Xm
Xn
Xo
Xp
Xq
Xr
Xs
Xt
Xu
Xv
Xw
Xx
Xy
Xz
X{
X|
X}
X~
X"!
X""
X"#
X"$
X"%
X"&
X"'
X"(
X")
X"*
X"+
X",
X"-
X".
X"/
X"0
X"1
X"2
X"3
X"4
X"5
X"6
X"7
X"8
X"9
X":
X";
X"<
X"=
$end
#500000
$comment Sample 0 (Start) $end
$comment Sample 0 (Trigger) $end
1!
0"
0#
0$
1%
0&
0'
0(
0)
0*
1+
0,
1-
0.
0/
00
11
02
03
14
15
16
17
08
09
0:
0;
1<
0=
0>
0?
1@
0A
1B
1C
0D
0E
1F
1G
0H
0I
0J
0K
1L
0M
0N
0O
1P
0Q
1R
1S
0T
0U
1V
1W
0X
0Y
0Z
0[
1\
0]
0^
0_
1`
0a
1b
1c
0d
0e
1f
1g
1h
1i
1j
1k
1l
1m
1n
1o
1p
1q
1r
1s
1t
1u
1v
1w
1x
1y
1z
1{
1|
1}
1~
1"!
1""
1"#
1"$
1"%
1"&
1"'
1"(
1")
0"*
0"+
0",
0"-
0".
0"/
1"0
1"1
1"2
1"3
1"4
1"5
1"6
1"7
1"8
1"9
1":
1";
1"<
1"=
#1000000
0!

#1500000
1!
1$
0%
0+
1"/
#2000000
0!

#2500000
1!
1".
0"/
#3000000
0!

#3500000
1!
1"/
#4000000
0!

#4500000
1!
0-
1"-
0".
0"/
#5000000
0!

#5500000
1!
0$
1E
1"/
#6000000
0!

#6500000
1!
1%
1+
1U
1e
1".
0"/
#7000000
0!

#7500000
1!
1-
1"/
#8000000
0!

#8500000
1!
1$
0%
0+
1",
0"-
0".
0"/
#9000000
0!

#9500000
1!
1"/
#10000000
0!

#10500000
1!
1".
0"/
#11000000
0!

#11500000
1!
0-
1"/
#12000000
0!

#12500000
1!
0$
1D
0E
1"-
0".
0"/
#13000000
0!

#13500000
1!
1%
1+
1T
0U
1d
0e
1"/
#14000000
0!

#14500000
1!
1-
1".
0"/
#15000000
0!

#15500000
1!
1$
0%
0+
1"/
#16000000
0!

#16500000
1!
1"+
0",
0"-
0".
0"/
#17000000
0!

#17500000
1!
1"/
#18000000
0!

#18500000
1!
0-
1".
0"/
#19000000
0!

#19500000
1!
0$
1E
1"/
#20000000
0!

#20500000
1!
1%
1+
1U
1e
1"-
0".
0"/
#21000000
0!

#21500000
1!
1-
1"/
#22000000
0!

#22500000
1!
1$
0%
0+
1".
0"/
#23000000
0!

#23500000
1!
1"/
#24000000
0!

#24500000
1!
1",
0"-
0".
0"/
#25000000
0!

#25500000
1!
0-
1"/
#26000000
0!

#26500000
1!
0$
1A
0B
0C
0D
0E
1".
0"/
#27000000
0!

#27500000
1!
1%
1+
1Q
0R
0S
0T
0U
1a
0b
0c
0d
0e
1"/
#28000000
0!

#28500000
1!
1-
1"-
0".
0"/
#29000000
0!

#29500000
1!
1$
0%
0+
1"/
#30000000
0!

#30500000
1!
1".
0"/
#31000000
0!

#31500000
1!
1"/
#32000000
0!

#32500000
1!
0-
1"*
0"+
0",
0"-
0".
0"/
#33000000
0!

#33500000
1!
0$
1E
1"/
#34000000
0!

#34500000
1!
1%
1+
1U
1e
1".
0"/
#35000000
0!

#35500000
1!
1-
1"/
#36000000
0!

#36500000
1!
1$
0%
0+
1"-
0".
0"/
#37000000
0!

#37500000
1!
1"/
#38000000
0!

#38500000
1!
1".
0"/
#39000000
0!

#39500000
1!
0-
1"/
#40000000
0!

#40500000
1!
0$
1D
0E
1",
0"-
0".
0"/
#41000000
0!

#41500000
1!
1%
1+
1T
0U
1d
0e
1"/
#42000000
0!

#42500000
1!
1-
1".
0"/
#43000000
0!

#43500000
1!
1$
0%
0+
1"/
#44000000
0!

#44500000
1!
1"-
0".
0"/
#45000000
0!

#45500000
1!
1"/
#46000000
0!

#46500000
1!
0-
1".
0"/
#47000000
0!

#47500000
1!
0$
1E
1"/
#48000000
0!

#48500000
1!
1%
1+
1U
1e
1"+
0",
0"-
0".
0"/
#49000000
0!

#49500000
1!
1-
1"/
#50000000
0!

#50500000
1!
1$
0%
0+
1".
0"/
#51000000
0!

#51500000
1!
1"/
#52000000
0!

#52500000
1!
1"-
0".
0"/
#53000000
0!

#53500000
1!
0-
1"/
#54000000
0!

#54500000
1!
0$
1C
0D
0E
1".
0"/
#55000000
0!

#55500000
1!
1%
1+
1S
0T
0U
1c
0d
0e
1"/
#56000000
0!

#56500000
1!
1-
1",
0"-
0".
0"/
#57000000
0!

#57500000
1!
1$
0%
0+
1"/
#58000000
0!

#58500000
1!
1".
0"/
#59000000
0!

#59500000
1!
1"/
#60000000
0!

#60500000
1!
0-
1"-
0".
0"/
#61000000
0!

#61500000
1!
0$
1E
1"/
#62000000
0!

#62500000
1!
1%
1+
1U
1e
1".
0"/
#63000000
0!

#63500000
1!
1-
1"/
#64000000
0!

#64500000
1!
1$
0%
0+
0"(
0")
0"*
0"+
0",
0"-
0".
0"/
#65000000
0!

#65500000
1!
1"/
#66000000
0!

#66500000
1!
1".
0"/
#67000000
0!

#67500000
1!
0-
1"/
#68000000
0!

#68500000
1!
0$
1D
0E
1"-
0".
0"/
#69000000
0!

#69500000
1!
1%
1+
1T
0U
1d
0e
1"/
#70000000
0!

#70500000
1!
1-
1".
0"/
#71000000
0!

#71500000
1!
1$
0%
0+
1"/
#72000000
0!

#72500000
1!
1",
0"-
0".
0"/
#73000000
0!

#73500000
1!
1"/
#74000000
0!

#74500000
1!
0-
1".
0"/
#75000000
0!

#75500000
1!
0$
1E
1"/
#76000000
0!

#76500000
1!
1%
1+
1U
1e
1"-
0".
0"/
#77000000
0!

#77500000
1!
1-
1"/
#78000000
0!

#78500000
1!
1$
0%
0+
1".
0"/
#79000000
0!

#79500000
1!
1"/
#80000000
0!

#80500000
1!
1"+
0",
0"-
0".
0"/
#81000000
0!

#81500000
1!
0-
1"/
#82000000
0!

#82500000
1!
0$
1B
0C
0D
0E
1".
0"/
#83000000
0!

#83500000
1!
1%
1+
1R
0S
0T
0U
1b
0c
0d
0e
1"/
#84000000
0!

#84500000
1!
1-
1"-
0".
0"/
#85000000
0!

#85500000
1!
1$
0%
0+
1"/
#86000000
0!

#86500000
1!
1".
0"/
#87000000
0!

#87500000
1!
1"/
#88000000
0!

#88500000
1!
0-
1",
0"-
0".
0"/
#89000000
0!

#89500000
1!
0$
1E
1"/
#90000000
0!

#90500000
1!
1%
1+
1U
1e
1".
0"/
#91000000
0!

#91500000
1!
1-
1"/
#92000000
0!

#92500000
1!
1$
0%
0+
1"-
0".
0"/
#93000000
0!

#93500000
1!
1"/
#94000000
0!

#94500000
1!
1".
0"/
#95000000
0!

#95500000
1!
0-
1"/
#96000000
0!

#96500000
1!
0$
1D
0E
1"*
0"+
0",
0"-
0".
0"/
#97000000
0!

#97500000
1!
1%
1+
1T
0U
1d
0e
1"/
#98000000
0!

#98500000
1!
1-
1".
0"/
#99000000
0!

#99500000
1!
1$
0%
0+
1"/
#100000000
0!

#100500000
1!
1"-
0".
0"/
#101000000
0!

#101500000
1!
1"/
#102000000
0!

#102500000
1!
0-
1".
0"/
#103000000
0!

#103500000
1!
0$
1E
1"/
#104000000
0!

#104500000
1!
1%
1+
1U
1e
1",
0"-
0".
0"/
#105000000
0!

#105500000
1!
1-
1"/
#106000000
0!

#106500000
1!
1$
0%
0+
1".
0"/
#107000000
0!

#107500000
1!
1"/
#108000000
0!

#108500000
1!
1"-
0".
0"/
#109000000
0!

#109500000
1!
0-
1"/
#110000000
0!

#110500000
1!
0$
1C
0D
0E
1".
0"/
#111000000
0!

#111500000
1!
1%
1+
1S
0T
0U
1c
0d
0e
1"/
#112000000
0!

#112500000
1!
1-
1"+
0",
0"-
0".
0"/
#113000000
0!

#113500000
1!
1$
0%
0+
1"/
#114000000
0!

#114500000
1!
1".
0"/
#115000000
0!

#115500000
1!
1"/
#116000000
0!

#116500000
1!
0-
1"-
0".
0"/
#117000000
0!

#117500000
1!
0$
1E
1"/
#118000000
0!

#118500000
1!
1%
1+
1U
1e
1".
0"/
#119000000
0!

#119500000
1!
1-
1"/
#120000000
0!

#120500000
1!
1$
0%
0+
1",
0"-
0".
0"/
#121000000
0!

#121500000
1!
1"/
#122000000
0!

#122500000
1!
1".
0"/
#123000000
0!

#123500000
1!
0-
1"/
#124000000
0!

#124500000
1!
0$
1D
0E
1"-
0".
0"/
#125000000
0!

#125500000
1!
1%
1+
1T
0U
1d
0e
1"/
#126000000
0!

#126500000
1!
1-
1".
0"/
#127000000
0!

#127500000
1!
1$
0%
0+
1"/
#128000000
0!

#128500000
1!
1")
0"*
0"+
0",
0"-
0".
0"/
#129000000
0!

#129500000
1!
1"/
#130000000
0!

#130500000
1!
0-
1".
0"/
#131000000
0!

#131500000
1!
0$
1E
1"/
#132000000
0!

#132500000
1!
1%
1+
1U
1e
1"-
0".
0"/
#133000000
0!

#133500000
1!
1-
1"/
#134000000
0!

#134500000
1!
1$
0%
0+
1".
0"/
#135000000
0!

#135500000
1!
1"/
#136000000
0!

#136500000
1!
1",
0"-
0".
0"/
#137000000
0!

#137500000
1!
0-
1"/
#138000000
0!

#138500000
1!
0$
1?
0@
0A
0B
0C
0D
0E
1".
0"/
#139000000
0!

#139500000
1!
1%
1+
1O
0P
0Q
0R
0S
0T
0U
1_
0`
0a
0b
0c
0d
0e
1"/
#140000000
0!

#140500000
1!
1-
1"-
0".
0"/
#141000000
0!

#141500000
1!
1$
0%
0+
1"/
#142000000
0!

#142500000
1!
1".
0"/
#143000000
0!

#143500000
1!
1"/
#144000000
0!

#144500000
1!
0-
1"+
0",
0"-
0".
0"/
#145000000
0!

#145500000
1!
0$
1E
1"/
#146000000
0!

#146500000
1!
1%
1+
1U
1e
1".
0"/
#147000000
0!

#147500000
1!
1-
1"/
#148000000
0!

#148500000
1!
1$
0%
0+
1"-
0".
0"/
#149000000
0!

#149500000
1!
1"/
#150000000
0!

#150500000
1!
1".
0"/
#151000000
0!

#151500000
1!
0-
1"/
#152000000
0!

#152500000
1!
0$
1D
0E
1",
0"-
0".
0"/
#153000000
0!

#153500000
1!
1%
1+
1T
0U
1d
0e
1"/
#154000000
0!

#154500000
1!
1-
1".
0"/
#155000000
0!

#155500000
1!
1$
0%
0+
1"/
#156000000
0!

#156500000
1!
1"-
0".
0"/
#157000000
0!

#157500000
1!
1"/
#158000000
0!

#158500000
1!
0-
1".
0"/
#159000000
0!

#159500000
1!
0$
1E
1"/
#160000000
0!

#160500000
1!
1%
1+
1U
1e
1"*
0"+
0",
0"-
0".
0"/
#161000000
0!

#161500000
1!
1-
1"/
#162000000
0!

#162500000
1!
1$
0%
0+
1".
0"/
#163000000
0!

#163500000
1!
1"/
#164000000
0!

#164500000
1!
1"-
0".
0"/
#165000000
0!

#165500000
1!
0-
1"/
#166000000
0!

#166500000
1!
0$
1C
0D
0E
1".
0"/
#167000000
0!

#167500000
1!
1%
1+
1S
0T
0U
1c
0d
0e
1"/
#168000000
0!

#168500000
1!
1-
1",
0"-
0".
0"/
#169000000
0!

#169500000
1!
1$
0%
0+
1"/
#170000000
0!

#170500000
1!
1".
0"/
#171000000
0!

#171500000
1!
1"/
#172000000
0!

#172500000
1!
0-
1"-
0".
0"/
#173000000
0!

#173500000
1!
0$
1E
1"/
#174000000
0!

#174500000
1!
1%
1+
1U
1e
1".
0"/
#175000000
0!

#175500000
1!
1-
1"/
#176000000
0!

#176500000
1!
1$
0%
0+
1"+
0",
0"-
0".
0"/
#177000000
0!

#177500000
1!
1"/
#178000000
0!

#178500000
1!
1".
0"/
#179000000
0!

#179500000
1!
0-
1"/
#180000000
0!

#180500000
1!
0$
1D
0E
1"-
0".
0"/
#181000000
0!

#181500000
1!
1%
1+
1T
0U
1d
0e
1"/
#182000000
0!

#182500000
1!
1-
1".
0"/
#183000000
0!

#183500000
1!
1$
0%
0+
1"/
#184000000
0!

#184500000
1!
1",
0"-
0".
0"/
#185000000
0!

#185500000
1!
1"/
#186000000
0!

#186500000
1!
0-
1".
0"/
#187000000
0!

#187500000
1!
0$
1E
1"/
#188000000
0!

#188500000
1!
1%
1+
1U
1e
1"-
0".
0"/
#189000000
0!

#189500000
1!
1-
1"/
#190000000
0!

#190500000
1!
1$
0%
0+
1".
0"/
#191000000
0!

#191500000
1!
1"/
#192000000
0!

#192500000
1!
1"(
0")
0"*
0"+
0",
0"-
0".
0"/
#193000000
0!

#193500000
1!
0-
1"/
#194000000
0!

#194500000
1!
0$
1B
0C
0D
0E
1".
0"/
#195000000
0!

#195500000
1!
1%
1+
1R
0S
0T
0U
1b
0c
0d
0e
1"/
#196000000
0!

#196500000
1!
1-
1"-
0".
0"/
#197000000
0!

#197500000
1!
1$
0%
0+
1"/
#198000000
0!

#198500000
1!
1".
0"/
#199000000
0!

#199500000
1!
1"/
#200000000
0!

#200500000
1!
0-
1",
0"-
0".
0"/
#201000000
0!

#201500000
1!
0$
1E
1"/
#202000000
0!

#202500000
1!
1%
1+
1U
1e
1".
0"/
#203000000
0!

#203500000
1!
1-
1"/
#204000000
0!

#204500000
1!
1$
0%
0+
1"-
0".
0"/
#205000000
0!

#205500000
1!
1"/
#206000000
0!

#206500000
1!
1".
0"/
#207000000
0!

#207500000
1!
0-
1"/
#208000000
0!

#208500000
1!
0$
1D
0E
1"+
0",
0"-
0".
0"/
#209000000
0!

#209500000
1!
1%
1+
1T
0U
1d
0e
1"/
#210000000
0!

#210500000
1!
1-
1".
0"/
#211000000
0!

#211500000
1!
1$
0%
0+
1"/
#212000000
0!

#212500000
1!
1"-
0".
0"/
#213000000
0!

#213500000
1!
1"/
#214000000
0!

#214500000
1!
0-
1".
0"/
#215000000
0!

#215500000
1!
0$
1E
1"/
#216000000
0!

#216500000
1!
1%
1+
1U
1e
1",
0"-
0".
0"/
#217000000
0!

#217500000
1!
1-
1"/
#218000000
0!

#218500000
1!
1$
0%
0+
1".
0"/
#219000000
0!

#219500000
1!
1"/
#220000000
0!

#220500000
1!
1"-
0".
0"/
#221000000
0!

#221500000
1!
0-
1"/
#222000000
0!

#222500000
1!
0$
1C
0D
0E
1".
0"/
#223000000
0!

#223500000
1!
1%
1+
1S
0T
0U
1c
0d
0e
1"/
#224000000
0!

#224500000
1!
1-
1"*
0"+
0",
0"-
0".
0"/
#225000000
0!

#225500000
1!
1$
0%
0+
1"/
#226000000
0!

#226500000
1!
1".
0"/
#227000000
0!

#227500000
1!
1"/
#228000000
0!

#228500000
1!
0-
1"-
0".
0"/
#229000000
0!

#229500000
1!
0$
1E
1"/
#230000000
0!

#230500000
1!
1%
1+
1U
1e
1".
0"/
#231000000
0!

#231500000
1!
1-
1"/
#232000000
0!

#232500000
1!
1$
0%
0+
1",
0"-
0".
0"/
#233000000
0!

#233500000
1!
1"/
#234000000
0!

#234500000
1!
1".
0"/
#235000000
0!

#235500000
1!
0-
1"/
#236000000
0!

#236500000
1!
0$
1D
0E
1"-
0".
0"/
#237000000
0!

#237500000
1!
1%
1+
1T
0U
1d
0e
1"/
#238000000
0!

#238500000
1!
1-
1".
0"/
#239000000
0!

#239500000
1!
1$
0%
0+
1"/
#240000000
0!

#240500000
1!
1"+
0",
0"-
0".
0"/
#241000000
0!

#241500000
1!
1"/
#242000000
0!

#242500000
1!
0-
1".
0"/
#243000000
0!

#243500000
1!
0$
1E
1"/
#244000000
0!

#244500000
1!
1%
1+
1U
1e
1"-
0".
0"/
#245000000
0!

#245500000
1!
1-
1"/
#246000000
0!

#246500000
1!
1$
0%
0+
1".
0"/
#247000000
0!

#247500000
1!
1"/
#248000000
0!

#248500000
1!
1",
0"-
0".
0"/
#249000000
0!

#249500000
1!
0-
1"/
#250000000
0!

#250500000
1!
0$
1A
0B
0C
0D
0E
1".
0"/
#251000000
0!

#251500000
1!
1%
1+
1Q
0R
0S
0T
0U
1a
0b
0c
0d
0e
1"/
#252000000
0!

#252500000
1!
1-
1"-
0".
0"/
#253000000
0!

#253500000
1!
1$
0%
0+
1"/
#254000000
0!

#254500000
1!
1".
0"/
#255000000
0!

#255500000
1!
1"/
#256000000
0!

#256500000
1!
0-
1")
0"*
0"+
0",
0"-
0".
0"/
#257000000
0!

#257500000
1!
0$
1E
1"/
#258000000
0!

#258500000
1!
1%
1+
1U
1e
1".
0"/
#259000000
0!

#259500000
1!
1-
1"/
#260000000
0!

#260500000
1!
1$
0%
0+
1"-
0".
0"/
#261000000
0!

#261500000
1!
1"/
#262000000
0!

#262500000
1!
1".
0"/
#263000000
0!

#263500000
1!
0-
1"/
#264000000
0!

#264500000
1!
0$
1D
0E
1",
0"-
0".
0"/
#265000000
0!

#265500000
1!
1%
1+
1T
0U
1d
0e
1"/
#266000000
0!

#266500000
1!
1-
1".
0"/
#267000000
0!

#267500000
1!
1$
0%
0+
1"/
#268000000
0!

#268500000
1!
1"-
0".
0"/
#269000000
0!

#269500000
1!
1"/
#270000000
0!

#270500000
1!
0-
1".
0"/
#271000000
0!

#271500000
1!
0$
1E
1"/
#272000000
0!

#272500000
1!
1%
1+
1U
1e
1"+
0",
0"-
0".
0"/
#273000000
0!

#273500000
1!
1-
1"/
#274000000
0!

#274500000
1!
1$
0%
0+
1".
0"/
#275000000
0!

#275500000
1!
1"/
#276000000
0!

#276500000
1!
1"-
0".
0"/
#277000000
0!

#277500000
1!
0-
1"/
#278000000
0!

#278500000
1!
0$
1C
0D
0E
1".
0"/
#279000000
0!

#279500000
1!
1%
1+
1S
0T
0U
1c
0d
0e
1"/
#280000000
0!

#280500000
1!
1-
1",
0"-
0".
0"/
#281000000
0!

#281500000
1!
1$
0%
0+
1"/
#282000000
0!

#282500000
1!
1".
0"/
#283000000
0!

#283500000
1!
1"/
#284000000
0!

#284500000
1!
0-
1"-
0".
0"/
#285000000
0!

#285500000
1!
0$
1E
1"/
#286000000
0!

#286500000
1!
1%
1+
1U
1e
1".
0"/
#287000000
0!

#287500000
1!
1-
1"/
#288000000
0!

#288500000
1!
1$
0%
0+
1"*
0"+
0",
0"-
0".
0"/
#289000000
0!

#289500000
1!
1"/
#290000000
0!

#290500000
1!
1".
0"/
#291000000
0!

#291500000
1!
0-
1"/
#292000000
0!

#292500000
1!
0$
1D
0E
1"-
0".
0"/
#293000000
0!

#293500000
1!
1%
1+
1T
0U
1d
0e
1"/
#294000000
0!

#294500000
1!
1-
1".
0"/
#295000000
0!

#295500000
1!
1$
0%
0+
1"/
#296000000
0!

#296500000
1!
1",
0"-
0".
0"/
#297000000
0!

#297500000
1!
1"/
#298000000
0!

#298500000
1!
0-
1".
0"/
#299000000
0!

#299500000
1!
0$
1E
1"/
#300000000
0!

#300500000
1!
1%
1+
1U
1e
1"-
0".
0"/
#301000000
0!

#301500000
1!
1-
1"/
#302000000
0!

#302500000
1!
1$
0%
0+
1".
0"/
#303000000
0!

#303500000
1!
1"/
#304000000
0!

#304500000
1!
1"+
0",
0"-
0".
0"/
#305000000
0!

#305500000
1!
0-
1"/
#306000000
0!

#306500000
1!
0$
1B
0C
0D
0E
1".
0"/
#307000000
0!

#307500000
1!
1%
1+
1R
0S
0T
0U
1b
0c
0d
0e
1"/
#308000000
0!

#308500000
1!
1-
1"-
0".
0"/
#309000000
0!

#309500000
1!
1$
0%
0+
1"/
#310000000
0!

#310500000
1!
1".
0"/
#311000000
0!

#311500000
1!
1"/
#312000000
0!

#312500000
1!
0-
1",
0"-
0".
0"/
#313000000
0!

#313500000
1!
0$
1E
1"/
#314000000
0!

#314500000
1!
1%
1+
1U
1e
1".
0"/
#315000000
0!

#315500000
1!
1-
1"/
#316000000
0!

#316500000
1!
1$
0%
0+
1"-
0".
0"/
#317000000
0!

#317500000
1!
1"/
#318000000
0!

#318500000
1!
1".
0"/
#319000000
0!

#319500000
1!
0-
1"/
#320000000
0!

#320500000
1!
0$
1D
0E
0"(
0")
0"*
0"+
0",
0"-
0".
0"/
#321000000
0!

#321500000
1!
1%
1+
1T
0U
1d
0e
1"/
#322000000
0!

#322500000
1!
1-
1".
0"/
#323000000
0!

#323500000
1!
1$
0%
0+
1"/
#324000000
0!

#324500000
1!
1"-
0".
0"/
#325000000
0!

#325500000
1!
1"/
#326000000
0!

#326500000
1!
0-
1".
0"/
#327000000
0!

#327500000
1!
0$
1E
1"/
#328000000
0!

#328500000
1!
1%
1+
1U
1e
1",
0"-
0".
0"/
#329000000
0!

#329500000
1!
1-
1"/
#330000000
0!

#330500000
1!
1$
0%
0+
1".
0"/
#331000000
0!

#331500000
1!
1"/
#332000000
0!

#332500000
1!
1"-
0".
0"/
#333000000
0!

#333500000
1!
0-
1"/
#334000000
0!

#334500000
1!
0$
1C
0D
0E
1".
0"/
#335000000
0!

#335500000
1!
1%
1+
1S
0T
0U
1c
0d
0e
1"/
#336000000
0!

#336500000
1!
1-
1"+
0",
0"-
0".
0"/
#337000000
0!

#337500000
1!
1$
0%
0+
1"/
#338000000
0!

#338500000
1!
1".
0"/
#339000000
0!

#339500000
1!
1"/
#340000000
0!

#340500000
1!
0-
1"-
0".
0"/
#341000000
0!

#341500000
1!
0$
1E
1"/
#342000000
0!

#342500000
1!
1%
1+
1U
1e
1".
0"/
#343000000
0!

#343500000
1!
1-
1"/
#344000000
0!

#344500000
1!
1$
0%
0+
1",
0"-
0".
0"/
#345000000
0!

#345500000
1!
1"/
#346000000
0!

#346500000
1!
1".
0"/
#347000000
0!

#347500000
1!
0-
1"/
#348000000
0!

#348500000
1!
0$
1D
0E
1"-
0".
0"/
#349000000
0!

#349500000
1!
1%
1+
1T
0U
1d
0e
1"/
#350000000
0!

#350500000
1!
1-
1".
0"/
#351000000
0!

#351500000
1!
1$
0%
0+
1"/
#352000000
0!

#352500000
1!
1"*
0"+
0",
0"-
0".
0"/
#353000000
0!

#353500000
1!
1"/
#354000000
0!

#354500000
1!
0-
1".
0"/
#355000000
0!

#355500000
1!
0$
1E
1"/
#356000000
0!

#356500000
1!
1%
1+
1U
1e
1"-
0".
0"/
#357000000
0!

#357500000
1!
1-
1"/
#358000000
0!

#358500000
1!
1$
0%
0+
1".
0"/
#359000000
0!

#359500000
1!
1"/
#360000000
0!

#360500000
1!
1",
0"-
0".
0"/
#361000000
0!

#361500000
1!
0-
1"/
#362000000
0!

#362500000
1!
0$
1@
0A
0B
0C
0D
0E
1".
0"/
#363000000
0!

#363500000
1!
1%
1+
1P
0Q
0R
0S
0T
0U
1`
0a
0b
0c
0d
0e
1"/
#364000000
0!

#364500000
1!
1-
1"-
0".
0"/
#365000000
0!

#365500000
1!
1$
0%
0+
1"/
#366000000
0!

#366500000
1!
1".
0"/
#367000000
0!

#367500000
1!
1"/
#368000000
0!

#368500000
1!
0-
1"+
0",
0"-
0".
0"/
#369000000
0!

#369500000
1!
0$
1E
1"/
#370000000
0!

#370500000
1!
1%
1+
1U
1e
1".
0"/
#371000000
0!

#371500000
1!
1-
1"/
#372000000
0!

#372500000
1!
1$
0%
0+
1"-
0".
0"/
#373000000
0!

#373500000
1!
1"/
#374000000
0!

#374500000
1!
1".
0"/
#375000000
0!

#375500000
1!
0-
1"/
#376000000
0!

#376500000
1!
0$
1D
0E
1",
0"-
0".
0"/
#377000000
0!

#377500000
1!
1%
1+
1T
0U
1d
0e
1"/
#378000000
0!

#378500000
1!
1-
1".
0"/
#379000000
0!

#379500000
1!
1$
0%
0+
1"/
#380000000
0!

#380500000
1!
1"-
0".
0"/
#381000000
0!

#381500000
1!
1"/
#382000000
0!

#382500000
1!
0-
1".
0"/
#383000000
0!

#383500000
1!
0$
1E
1"/
#384000000
0!

#384500000
1!
1%
1+
1U
1e
1")
0"*
0"+
0",
0"-
0".
0"/
#385000000
0!

#385500000
1!
1-
1"/
#386000000
0!

#386500000
1!
1$
0%
0+
1".
0"/
#387000000
0!

#387500000
1!
1"/
#388000000
0!

#388500000
1!
1"-
0".
0"/
#389000000
0!

#389500000
1!
0-
1"/
#390000000
0!

#390500000
1!
0$
1C
0D
0E
1".
0"/
#391000000
0!

#391500000
1!
1%
1+
1S
0T
0U
1c
0d
0e
1"/
#392000000
0!

#392500000
1!
1-
1",
0"-
0".
0"/
#393000000
0!

#393500000
1!
1$
0%
0+
1"/
#394000000
0!

#394500000
1!
1".
0"/
#395000000
0!

#395500000
1!
1"/
#396000000
0!

#396500000
1!
0-
1"-
0".
0"/
#397000000
0!

#397500000
1!
0$
1E
1"/
#398000000
0!

#398500000
1!
1%
1+
1U
1e
1".
0"/
#399000000
0!

#399500000
1!
1-
1"/
#400000000
0!

#400500000
1!
1$
0%
0+
1"+
0",
0"-
0".
0"/
#401000000
0!

#401500000
1!
1"/
